<?xml version="1.0" encoding="utf-8"?>
<!-- Generator: Adobe Illustrator 16.0.0, SVG Export Plug-In . SVG Version: 6.00 Build 0)  -->
<!DOCTYPE svg PUBLIC "-//W3C//DTD SVG 1.1//EN" "http://www.w3.org/Graphics/SVG/1.1/DTD/svg11.dtd">
<svg version="1.1" id="Layer_1" xmlns="http://www.w3.org/2000/svg" xmlns:xlink="http://www.w3.org/1999/xlink" x="0px" y="0px"
	 width="24.645px" height="20.877px" viewBox="0 0 24.645 20.877" enable-background="new 0 0 24.645 20.877" xml:space="preserve">
<path fill="#F9EDE8" d="M20.306,0.313c1.431,0.386,2.512,1.168,3.241,2.347c0.731,1.176,1.098,2.541,1.098,4.088
	c0,2.595-0.836,4.921-2.506,6.977c-1.192,1.46-2.153,2.52-2.885,3.174c-0.731,0.655-1.768,1.384-3.108,2.191
	c-0.536,0.356-1.06,0.714-1.565,1.07c-0.746,0.48-1.343,0.717-1.788,0.717h-0.089c-0.477-0.029-0.924-0.179-1.343-0.447
	c-0.417-0.27-0.833-0.524-1.252-0.765c-3.25-1.998-5.694-3.967-7.334-5.911C0.925,11.541,0,9.317,0,7.079
	C0,5.703,0.373,4.48,1.118,3.403c0-0.208,0.195-0.611,0.583-1.209l0.715-0.761C3.518,0.477,4.919,0,6.619,0
	c1.341,0,2.624,0.44,3.847,1.321c1.221,0.881,1.864,1.321,1.924,1.321l0.043-0.044c0.029,0,0.679-0.433,1.946-1.299
	C15.646,0.434,16.95,0,18.293,0C18.948,0,19.618,0.105,20.306,0.313z"/>
</svg>
