<?xml version="1.0" encoding="utf-8"?>
<!-- Generator: Adobe Illustrator 16.0.0, SVG Export Plug-In . SVG Version: 6.00 Build 0)  -->
<!DOCTYPE svg PUBLIC "-//W3C//DTD SVG 1.1//EN" "http://www.w3.org/Graphics/SVG/1.1/DTD/svg11.dtd">
<svg version="1.1" id="Layer_1" xmlns="http://www.w3.org/2000/svg" xmlns:xlink="http://www.w3.org/1999/xlink" x="0px" y="0px"
	 width="33.706px" height="31.068px" viewBox="0 0 33.706 31.068" enable-background="new 0 0 33.706 31.068" xml:space="preserve">
<path fill-rule="evenodd" clip-rule="evenodd" fill="#DBA878" d="M20.34,22.362c-4.17,2.959-8.581,3.58-13.214,1.426
	c-4.947-2.301-7.757-7.632-7.005-13.005C0.869,5.432,5.041,1.038,10.412,0.19c4.885-0.771,9.015,0.797,12.031,4.737
	c3.031,3.965,3.436,8.354,1.396,12.91c-0.326,0.729-0.229,1.077,0.354,1.571c2.912,2.465,5.787,4.974,8.664,7.479
	c0.828,0.723,1.047,1.617,0.676,2.509c-0.458,1.104-1.455,1.835-2.505,1.64c-0.56-0.104-1.129-0.451-1.573-0.829
	c-2.838-2.417-5.643-4.874-8.459-7.315C20.776,22.703,20.546,22.529,20.34,22.362z M21.791,12.541
	c0.007-5.058-4.016-9.107-9.059-9.119c-5.044-0.013-9.142,4.03-9.158,9.036c-0.017,5.066,4.07,9.181,9.12,9.18
	C17.72,21.638,21.784,17.573,21.791,12.541z"/>
</svg>
